Lab 6
…
Finding top words per specialty

mtsamplesrds %>%
  unnest_tokens(token, V5) %>%
  anti_join(stop_words, by = c("token" = "word")) %>%
  anti_join(data.frame(token = as.character(0:9)), by = "token") %>%
  group_by(V3) %>%
  count(token, sort = TRUE) %>%
  top_n(5, n)

# A tibble: 211 × 3
# Groups:   V3 [41]
   V3                         token          n
   <chr>                      <chr>      <int>
 1 Surgery                    patient     4855
 2 Surgery                    left        3263
 3 Surgery                    procedure   3243
 4 Consult - History and Phy. patient     3046
 5 Consult - History and Phy. history     2820
 6 Orthopedic                 patient     1711
 7 Surgery                    anesthesia  1687
 8 Surgery                    incision    1641
 9 Cardiovascular / Pulmonary left        1550
10 Cardiovascular / Pulmonary patient     1516
# ℹ 201 more rows
